{
  "project_info": {
    "project_number": "717545369164",
    "firebase_url": "https://salt-firebase-training-default-rtdb.firebaseio.com",
    "project_id": "salt-firebase-training",
    "storage_bucket": "salt-firebase-training.appspot.com"
  },
  "client": [
    {
      "client_info": {
        "mobilesdk_app_id": "1:717545369164:android:da91afaf885a92cce58ee9",
        "android_client_info": {
          "package_name": "com.firebasetraining"
        }
      },
      "oauth_client": [
        {
          "client_id": "717545369164-1cjd8n4b7l1pme3svtkvbp3ul29a573h.apps.googleusercontent.com",
          "client_type": 1,
          "android_info": {
            "package_name": "com.firebasetraining",
            "certificate_hash": "965c5ca7cb2bbe13d7b20226108e18390b170c3b"
          }
        },
        {
          "client_id": "717545369164-cb9dtrbnvat8pfuugrq6n91lmtsgj2d8.apps.googleusercontent.com",
          "client_type": 3
        }
      ],
      "api_key": [
        {
          "current_key": "AIzaSyARGjFfyOSRjvwI9u4C2Q76cjxpudwacLs"
        }
      ],
      "services": {
        "appinvite_service": {
          "other_platform_oauth_client": [
            {
              "client_id": "717545369164-cb9dtrbnvat8pfuugrq6n91lmtsgj2d8.apps.googleusercontent.com",
              "client_type": 3
            }
          ]
        }
      }
    },
    {
      "client_info": {
        "mobilesdk_app_id": "1:717545369164:android:61fa085b77af68eee58ee9",
        "android_client_info": {
          "package_name": "com.reactnativefundamental"
        }
      },
      "oauth_client": [
        {
          "client_id": "717545369164-82sq8gljv43uqmtbl5ef5e1nebbd7kvt.apps.googleusercontent.com",
          "client_type": 1,
          "android_info": {
            "package_name": "com.reactnativefundamental",
            "certificate_hash": "5e8f16062ea3cd2c4a0d547876baa6f38cabf625"
          }
        },
        {
          "client_id": "717545369164-cb9dtrbnvat8pfuugrq6n91lmtsgj2d8.apps.googleusercontent.com",
          "client_type": 3
        }
      ],
      "api_key": [
        {
          "current_key": "AIzaSyARGjFfyOSRjvwI9u4C2Q76cjxpudwacLs"
        }
      ],
      "services": {
        "appinvite_service": {
          "other_platform_oauth_client": [
            {
              "client_id": "717545369164-cb9dtrbnvat8pfuugrq6n91lmtsgj2d8.apps.googleusercontent.com",
              "client_type": 3
            }
          ]
        }
      }
    }
  ],
  "configuration_version": "1"
}